<?xml version="1.0" encoding="UTF-8"?>
<svg xmlns="http://www.w3.org/2000/svg" xmlns:xlink="http://www.w3.org/1999/xlink" width="22pt" height="22pt" viewBox="0 0 22 22" version="1.1">
<g id="surface1">
<path style=" stroke:none;fill-rule:nonzero;fill:#fff;fill-opacity:1;" d="M 4.679688 0.480469 C 4 0.617188 3.378906 1.25 3.25 1.949219 C 3.21875 2.109375 3.207031 5.226562 3.214844 11.242188 L 3.226562 20.292969 L 3.328125 20.542969 C 3.515625 21.015625 3.933594 21.433594 4.40625 21.621094 L 4.65625 21.722656 L 17.519531 21.722656 L 17.757812 21.625 C 18.242188 21.429688 18.65625 21.011719 18.855469 20.53125 L 18.953125 20.292969 L 18.960938 12.90625 C 18.96875 8.84375 18.960938 5.476562 18.953125 5.414062 C 18.921875 5.292969 14.261719 0.597656 14.070312 0.492188 C 13.96875 0.445312 13.273438 0.433594 9.410156 0.4375 C 6.917969 0.445312 4.785156 0.457031 4.679688 0.480469 Z M 13.382812 3.53125 C 13.382812 5.097656 13.398438 5.699219 13.4375 5.785156 C 13.546875 6.023438 13.546875 6.023438 15.875 6.023438 L 18.019531 6.023438 L 18.011719 13.046875 L 18 20.078125 L 17.902344 20.25 C 17.796875 20.449219 17.667969 20.578125 17.457031 20.6875 C 17.308594 20.761719 17.078125 20.769531 11.089844 20.769531 C 5.101562 20.769531 4.867188 20.761719 4.71875 20.6875 C 4.507812 20.578125 4.378906 20.449219 4.277344 20.25 L 4.179688 20.078125 L 4.179688 11.089844 C 4.179688 2.394531 4.1875 2.097656 4.261719 1.949219 C 4.421875 1.640625 4.640625 1.484375 4.957031 1.425781 C 5.054688 1.414062 6.992188 1.394531 9.257812 1.390625 L 13.382812 1.386719 Z M 15.832031 3.597656 L 17.304688 5.066406 L 14.339844 5.066406 L 14.339844 3.597656 C 14.339844 2.785156 14.34375 2.121094 14.347656 2.121094 C 14.351562 2.121094 15.023438 2.785156 15.832031 3.597656 Z M 15.832031 3.597656 "/>
<path style=" stroke:none;fill-rule:nonzero;fill:#fff;fill-opacity:1;" d="M 6.582031 9.828125 C 6.402344 10.011719 6.402344 10.292969 6.582031 10.492188 L 6.707031 10.632812 L 15.472656 10.632812 L 15.597656 10.492188 C 15.773438 10.292969 15.773438 10.011719 15.597656 9.828125 L 15.472656 9.703125 L 6.707031 9.703125 Z M 6.582031 9.828125 "/>
<path style=" stroke:none;fill-rule:nonzero;fill:#fff;fill-opacity:1;" d="M 6.675781 13.445312 C 6.375 13.613281 6.382812 14.144531 6.691406 14.285156 C 6.773438 14.324219 7.863281 14.339844 11.09375 14.339844 C 15.75 14.339844 15.558594 14.347656 15.667969 14.101562 C 15.785156 13.855469 15.703125 13.550781 15.503906 13.445312 C 15.332031 13.359375 6.832031 13.359375 6.675781 13.445312 Z M 6.675781 13.445312 "/>
<path style=" stroke:none;fill-rule:nonzero;fill:#fff;fill-opacity:1;" d="M 6.730469 17.109375 C 6.441406 17.226562 6.355469 17.667969 6.582031 17.894531 L 6.707031 18.019531 L 15.457031 18.019531 L 15.578125 17.917969 C 15.664062 17.84375 15.699219 17.769531 15.710938 17.601562 C 15.730469 17.402344 15.71875 17.367188 15.601562 17.234375 L 15.472656 17.085938 L 11.144531 17.078125 C 8.765625 17.078125 6.777344 17.085938 6.730469 17.109375 Z M 6.730469 17.109375 "/>
</g>
</svg>
